[
    {
        "name": "Новая",
        "sla": true,
        "is_finish": false,
        "is_default": true,
        "color": "#E1980C",
        "background": "#FFE978",
        "preview_link": "/status/new.svg"
    },
    {
        "name": "В работе",
        "sla": true,
        "is_finish": false,
        "is_default": false,
        "color": "#E1980C",
        "background": "#FFE978",
        "preview_link": "/status/new.svg"
    },
    {
        "name": "Возобновлена",
        "sla": false,
        "is_finish": false,
        "is_default": false,
        "color": "#E1980C",
        "background": "#FFE978",
        "preview_link": "/status/new.svg"
    },
    {
        "name": "Завершена",
        "sla": false,
        "is_finish": true,
        "is_default": false,
        "color": "#65A300",
        "background": "#C2FF5F",
        "preview_link": "/status/success.svg"
    }
]
