<!-- <svg xmlns="http://www.w3.org/2000/svg" width="16" height="15" viewBox="0 0 24 24"><path fill="WindowText" d="M20 3h-1V1h-2v2H7V1H5v2H4c-1.1 0-2 .9-2 2v16c0 1.1.9 2 2 2h16c1.1 0 2-.9 2-2V5c0-1.1-.9-2-2-2zm0 18H4V8h16v13z"/><path fill="none" d="M0 0h24v24H0z"/></svg> -->

<svg width="18" height="18" viewBox="0 0 24 24" fill="none" xmlns="http://www.w3.org/2000/svg">
<path d="M16.4445 10.2857H7.55555V12.0635H16.4445V10.2857ZM18.2222 5.20635H17.3334V4H15.5555V5.20635H8.44445V4H6.66666V5.20635H5.77778C4.79111 5.20635 4.00889 6.00635 4.00889 6.98413L4 18.2857C4 19.2635 4.79111 20 5.77778 20H18.2222C19.2 20 20 19.2635 20 18.2857V6.98413C20 6.00635 19.2 5.20635 18.2222 5.20635ZM18.2222 18.2857H5.77778V8.50793H18.2222V18.2857ZM13.7778 13.8413H7.55555V15.6191H13.7778V13.8413Z" fill="#63B6F2"/>
</svg>
