<svg width="40" height="41" viewBox="0 0 40 41" fill="none" xmlns="http://www.w3.org/2000/svg">
<path d="M12.5 23.8706C12.303 23.8706 12.1079 23.9093 11.9259 23.9847C11.7439 24.0601 11.5785 24.1705 11.4392 24.3098C11.2999 24.4491 11.1894 24.6145 11.1141 24.7965C11.0387 24.9785 11 25.1736 11 25.3706V28.044C9.06658 25.8575 7.99956 23.0394 8.00001 20.1206C7.99973 19.6795 8.02614 19.2387 8.0791 18.8008C8.10339 18.605 8.08879 18.4062 8.03614 18.2161C7.98349 18.0259 7.89382 17.8479 7.77229 17.6925C7.65075 17.537 7.49972 17.407 7.32787 17.31C7.15601 17.213 6.96671 17.1509 6.7708 17.1272C6.57488 17.1035 6.37622 17.1187 6.18619 17.1719C5.99616 17.2251 5.8185 17.3153 5.66339 17.4373C5.50827 17.5593 5.37876 17.7107 5.28227 17.8828C5.18578 18.055 5.1242 18.2445 5.10108 18.4405C5.03313 18.9979 4.99938 19.559 5.00001 20.1206C5.00205 23.6999 6.28844 27.1595 8.62531 29.8706H6.50001C6.10218 29.8706 5.72065 30.0286 5.43935 30.3099C5.15804 30.5913 5.00001 30.9728 5.00001 31.3706C5.00001 31.7684 5.15804 32.15 5.43935 32.4313C5.72065 32.7126 6.10218 32.8706 6.50001 32.8706H12.5C12.7346 32.8677 12.9651 32.8087 13.1723 32.6986C13.3795 32.5886 13.5574 32.4306 13.6912 32.2379C13.7087 32.2148 13.731 32.1977 13.7473 32.1734C13.7573 32.1585 13.7576 32.1408 13.7669 32.1256C13.8384 32.0048 13.8919 31.8743 13.9259 31.7382C13.9481 31.6617 13.9639 31.5834 13.973 31.5043C13.9774 31.458 14 31.4181 14 31.3707V25.3707C14.0001 25.1737 13.9613 24.9786 13.886 24.7965C13.8106 24.6145 13.7001 24.4491 13.5608 24.3098C13.4215 24.1705 13.2561 24.06 13.0741 23.9847C12.8921 23.9093 12.697 23.8706 12.5 23.8706ZM14.75 11.1206H12.0763C14.263 9.18728 17.0812 8.12029 20 8.12062C20.4409 8.11956 20.8815 8.14599 21.3191 8.19973C21.5147 8.22349 21.7131 8.20848 21.903 8.15556C22.0928 8.10264 22.2703 8.01285 22.4255 7.89132C22.5806 7.76978 22.7103 7.61888 22.8071 7.44722C22.9039 7.27557 22.966 7.08653 22.9897 6.89089C23.0135 6.69526 22.9985 6.49686 22.9456 6.30702C22.8926 6.11719 22.8029 5.93963 22.6813 5.7845C22.5598 5.62936 22.4089 5.49969 22.2372 5.40287C22.0656 5.30605 21.8765 5.244 21.6809 5.22024C21.1231 5.15295 20.5618 5.11968 20 5.12062C16.4208 5.12257 12.9611 6.40887 10.25 8.74566V6.62062C10.25 6.2228 10.092 5.84127 9.81067 5.55996C9.52936 5.27866 9.14783 5.12062 8.75001 5.12062C8.35218 5.12062 7.97065 5.27866 7.68935 5.55996C7.40804 5.84127 7.25001 6.2228 7.25001 6.62062V12.6206C7.25944 12.7198 7.2792 12.8176 7.30897 12.9127L7.30933 12.9145C7.34576 13.0991 7.41767 13.2748 7.52109 13.432L7.53822 13.4574C7.63733 13.6015 7.76156 13.7267 7.90497 13.8269C7.92136 13.8389 7.92951 13.8573 7.94653 13.8687C7.96797 13.8829 7.99222 13.8874 8.01411 13.9004C8.09917 13.9516 8.18932 13.9938 8.28309 14.0264C8.40981 14.0705 8.54194 14.0971 8.67585 14.1057C8.70184 14.107 8.72373 14.1207 8.75001 14.1207H14.75C15.1478 14.1207 15.5294 13.9626 15.8107 13.6813C16.092 13.4 16.25 13.0185 16.25 12.6207C16.25 12.2228 16.092 11.8413 15.8107 11.56C15.5294 11.2787 15.1478 11.1207 14.75 11.1207V11.1206ZM32.6907 27.3267C32.6543 27.1421 32.5823 26.9663 32.4788 26.8091L32.4619 26.7839C32.3627 26.6397 32.2384 26.5145 32.0948 26.4142C32.0785 26.4023 32.0704 26.3838 32.0535 26.3725C32.0373 26.3618 32.018 26.3614 32.0016 26.3513C31.8113 26.2456 31.6028 26.1766 31.387 26.1482C31.3395 26.1437 31.2986 26.1205 31.25 26.1205H25.25C24.8522 26.1205 24.4706 26.2786 24.1893 26.5599C23.908 26.8412 23.75 27.2227 23.75 27.6205C23.75 28.0184 23.908 28.3999 24.1893 28.6812C24.4706 28.9625 24.8522 29.1205 25.25 29.1205H27.9236C25.737 31.0539 22.9188 32.1209 20 32.1205C19.5591 32.1211 19.1185 32.0942 18.6809 32.04C18.2858 31.992 17.8878 32.1029 17.5745 32.3484C17.2612 32.5938 17.0582 32.9537 17.0102 33.3488C16.9623 33.7439 17.0732 34.1419 17.3187 34.4552C17.5641 34.7685 17.924 34.9715 18.3191 35.0195C18.8769 35.0867 19.4382 35.1205 20 35.1205C23.5792 35.1186 27.0389 33.8323 29.75 31.4955V33.6206C29.75 34.0184 29.908 34.4 30.1893 34.6813C30.4706 34.9626 30.8522 35.1206 31.25 35.1206C31.6478 35.1206 32.0293 34.9626 32.3107 34.6813C32.592 34.4 32.75 34.0184 32.75 33.6206V27.6206C32.7406 27.5215 32.7208 27.4236 32.691 27.3286L32.6907 27.3267ZM33.5 10.3706C33.8978 10.3706 34.2793 10.2126 34.5607 9.93128C34.842 9.64998 35 9.26845 35 8.87062C35 8.4728 34.842 8.09127 34.5607 7.80996C34.2793 7.52866 33.8978 7.37062 33.5 7.37062H27.5C27.4023 7.38004 27.3059 7.39949 27.2122 7.42867L27.2023 7.43068C27.0201 7.46713 26.8466 7.53817 26.6912 7.63998L26.6618 7.65984C26.5183 7.7588 26.3937 7.88265 26.2939 8.02551C26.2821 8.04171 26.2639 8.04967 26.2527 8.06643C26.242 8.08254 26.2416 8.10159 26.2315 8.11797C26.1245 8.30936 26.0551 8.51947 26.027 8.73696C26.0227 8.78329 26 8.82321 26 8.87062V14.8706C26 15.2684 26.158 15.65 26.4393 15.9313C26.7206 16.2126 27.1022 16.3706 27.5 16.3706C27.8978 16.3706 28.2793 16.2126 28.5607 15.9313C28.842 15.65 29 15.2684 29 14.8706V12.1963C30.9333 14.3833 32.0002 17.2016 32 20.1205C32.0003 20.5617 31.9739 21.0024 31.9209 21.4404C31.8733 21.8352 31.9844 22.2328 32.2296 22.5458C32.4749 22.8589 32.8343 23.0619 33.229 23.1103C33.2898 23.1173 33.3509 23.1208 33.4121 23.1205C33.7784 23.1201 34.1318 22.9856 34.4057 22.7424C34.6796 22.4993 34.855 22.1643 34.8989 21.8007C34.9669 21.2433 35.0006 20.6822 35 20.1206C34.9979 16.5413 33.7115 13.0817 31.3745 10.3706H33.5Z" fill="white"/>
</svg>
