<svg width="40" height="41" viewBox="0 0 40 41" fill="none" xmlns="http://www.w3.org/2000/svg">
<path d="M33.6364 24.2115H30.9091V20.1206C30.9091 19.7589 30.7654 19.4121 30.5097 19.1564C30.254 18.9006 29.9071 18.757 29.5455 18.757H21.3636V16.0297H24.0909C24.4526 16.0297 24.7994 15.886 25.0551 15.6303C25.3109 15.3746 25.4545 15.0277 25.4545 14.6661V6.48424C25.4545 6.12258 25.3109 5.77574 25.0551 5.52001C24.7994 5.26427 24.4526 5.12061 24.0909 5.12061H15.9091C15.5474 5.12061 15.2006 5.26427 14.9449 5.52001C14.6891 5.77574 14.5455 6.12258 14.5455 6.48424V14.6661C14.5455 15.0277 14.6891 15.3746 14.9449 15.6303C15.2006 15.886 15.5474 16.0297 15.9091 16.0297H18.6364V18.757H10.4545C10.0929 18.757 9.74604 18.9006 9.49031 19.1564C9.23458 19.4121 9.09091 19.7589 9.09091 20.1206V24.2115H6.36364C6.00198 24.2115 5.65513 24.3552 5.3994 24.6109C5.14367 24.8666 5 25.2135 5 25.5752V33.757C5 34.1186 5.14367 34.4655 5.3994 34.7212C5.65513 34.9769 6.00198 35.1206 6.36364 35.1206H14.5455C14.9071 35.1206 15.254 34.9769 15.5097 34.7212C15.7654 34.4655 15.9091 34.1186 15.9091 33.757V25.5752C15.9091 25.2135 15.7654 24.8666 15.5097 24.6109C15.254 24.3552 14.9071 24.2115 14.5455 24.2115H11.8182V21.4842H28.1818V24.2115H25.4545C25.0929 24.2115 24.746 24.3552 24.4903 24.6109C24.2346 24.8666 24.0909 25.2135 24.0909 25.5752V33.757C24.0909 34.1186 24.2346 34.4655 24.4903 34.7212C24.746 34.9769 25.0929 35.1206 25.4545 35.1206H33.6364C33.998 35.1206 34.3449 34.9769 34.6006 34.7212C34.8563 34.4655 35 34.1186 35 33.757V25.5752C35 25.2135 34.8563 24.8666 34.6006 24.6109C34.3449 24.3552 33.998 24.2115 33.6364 24.2115ZM13.1818 26.9388V32.3933H7.72727V26.9388H13.1818ZM17.2727 13.3024V7.84788H22.7273V13.3024H17.2727ZM32.2727 32.3933H26.8182V26.9388H32.2727V32.3933Z" fill="white"/>
</svg>
