<svg width="100" height="100" viewBox="0 0 100 100" fill="none" xmlns="http://www.w3.org/2000/svg">
<g id="Group 1">
<path id="Vector" fill-rule="evenodd" clip-rule="evenodd" d="M40.1831 19.199C37.2643 14.5921 61.8717 10.7659 63.5055 24.8652C64.148 29.1134 64.148 33.4362 63.5055 37.6845C63.5055 37.6845 67.1831 37.2652 64.7295 44.2279C64.7295 44.2279 63.3782 49.2375 61.3012 48.112C61.3012 48.112 61.6391 54.4458 58.3714 55.5189C58.3714 55.5189 58.604 58.8927 58.604 59.1217L61.3345 59.5272C61.3345 59.5272 61.2514 62.341 61.7969 62.6444C64.2892 64.2444 67.0197 65.461 69.8914 66.2444C78.3708 68.3879 82.6742 72.0651 82.6742 75.2872L84.8803 84.5C79.5 91.5 64.6791 99.2434 52.5 99.5H45.5L39 98C29 96.5 23 91.5 15 85C15.4458 81.8028 15.0274 80.0568 15.6283 77.7258C16.9188 72.7161 24.1769 68.9948 30.8535 66.1341C34.3095 64.6527 35.0572 63.7617 38.5354 62.2472C38.7292 61.3258 38.8068 60.3823 38.768 59.4417L41.7255 59.0913C41.7255 59.0913 42.1132 59.7948 41.4902 55.6568C41.4902 55.6568 38.1671 54.7989 38.012 48.2086C38.012 48.2086 35.5142 49.0361 35.3646 45.0444C35.2566 42.341 33.1271 39.9907 36.1926 38.0459L34.6308 33.9024C34.6308 33.9024 32.9914 17.9024 40.1831 19.199Z" fill="#1A202C"/>
<circle id="Ellipse 1" cx="50" cy="50" r="49.5" stroke="#1A202C"/>
</g>
</svg>
